{
   "totalPages":3,
   "pageNumber":3,
   "totalRecords":6,
   "data":[
      {
         "id":5,
         "displayName":"Test Five Organization",
         "totalReviews":null
      },
      {
         "id":6,
         "displayName":"Test Six Organization",
         "totalReviews":null
      }
   ],
   "recordPerPage":2
}